workspace/Alpha/sim/waveform/controller.vcd
$date
	Fri Mar  6 19:32:19 2026
$end
$version
	Icarus Verilog
$end
$timescale
	1ps
$end
$scope module controller_tb $end
$var wire 3 ! controller_regmap_bus1 [2:0] $end
$var wire 3 " reg_map_data_out [2:0] $end
$var wire 3 # controller_regmap_bus0 [2:0] $end
$var reg 1 $ clk $end
$var reg 1 % reg_map_addr $end
$var reg 1 & reg_map_cen $end
$var reg 3 ' reg_map_data_in [2:0] $end
$var reg 1 ( reg_map_wen $end
$var reg 1 ) reset $end
$var reg 1 * start $end
$scope module controller_inst $end
$var wire 1 + busy $end
$var wire 1 $ clk $end
$var wire 1 , kmem_free $end
$var wire 1 - qmem_free $end
$var wire 1 ) reset $end
$var wire 1 * start $end
$var wire 3 . status_to_reg_map [2:0] $end
$var wire 3 / mode_from_reg_map [2:0] $end
$var reg 1 0 op_mode $end
$var reg 1 1 sfp_write_to_kmem $end
$var reg 1 2 sfp_write_to_pmem $end
$upscope $end
$scope module reg_map_inst $end
$var wire 1 % addr $end
$var wire 1 & cen $end
$var wire 1 $ clk $end
$var wire 3 3 data_in [2:0] $end
$var wire 3 4 mode_to_controller [2:0] $end
$var wire 1 ) reset $end
$var wire 3 5 status_from_controller [2:0] $end
$var wire 1 ( wen $end
$var reg 3 6 data_out [2:0] $end
$var reg 3 7 mode_reg [2:0] $end
$upscope $end
$upscope $end
$enddefinitions $end
#0
$dumpvars
bx 7
b0 6
bz 5
bx 4
bx 3
x2
x1
x0
bx /
bz .
z-
z,
z+
1*
1)
x(
bx '
x&
x%
0$
bx #
b0 "
bz !
$end
#500
b10 #
b10 /
b10 4
b10 7
1$
#1000
0$
#1500
1$
#2000
0)
0$
#2500
1$
#3000
b10 '
b10 3
0%
1(
0&
0$
#3500
1$
#4000
1&
0$
#4500
1$
#5000
0$
#5500
1$
#6000
0$
#6500
1$
#7000
0$
#7500
1$
#8000
0$
#8500
1$
#9000
0$
#9500
1$
#10000
0$
#10500
1$
#11000
0$
#11500
1$
#12000
0$
#12500
1$
#13000
0$
#13500
1$
#14000
b110 '
b110 3
0&
0$
#14500
b110 #
b110 /
b110 4
b110 7
1$
#15000
1&
0$
